[
  {
    "isSpecialist": false,
    "specialNotifications": null,
    "ordination": "Magacin",
    "speciality": null,
    "salary": 1500.0,
    "city": "Novi Sad,Danila Kisa 7a,21000,Srbija",
    "email": "lidija@gmail.com",
    "password": "lidija123",
    "firstName": "Lidija",
    "secondName": "Vukovic",
    "uniqueCitizensidentityNumber": "2310789455555",
    "dateOfBirth": "23/10/1998",
    "phoneNumber": "062589758",
    "id": 1
  },
  {
    "isSpecialist": false,
    "specialNotifications": null,
    "ordination": "Operation room 30",
    "speciality": null,
    "salary": 2000.0,
    "city": "Novi Sad, Radoslava Prodanovica 4, 21000, Srbija",
    "email": "paja@gmail.com",
    "password": "paja",
    "firstName": "Pavle",
    "secondName": "Savic",
    "uniqueCitizensidentityNumber": "45598745896548",
    "dateOfBirth": "19/01/1971",
    "phoneNumber": "258522566",
    "id": 4
  },
  {
    "isSpecialist": true,
    "specialNotifications": null,
    "ordination": "Room 500",
    "speciality": "kardiolog",
    "salary": 2050.0,
    "city": "Novi Sad, Vase Stajica 5, 21000,Srbija",
    "email": "pera@gmail.com",
    "password": "pera",
    "firstName": "Pera",
    "secondName": "Peric",
    "uniqueCitizensidentityNumber": "1402999805025",
    "dateOfBirth": "14/02/1999",
    "phoneNumber": "0652610775",
    "id": 2
  }
]