[
  {
    "room": "SecretarysRoom",
    "salary": 800.0,
    "city": "Novi Sad, Bulevar 3, 21000,Srbija ",
    "email": "milica2@gmail.com",
    "password": "milica",
    "firstName": "Milica",
    "secondName": "Milic",
    "uniqueCitizensidentityNumber": "1256478956854",
    "dateOfBirth": "14/02/1998",
    "phoneNumber": "064895627",
    "id": 2
  },
  {
    "room": "6",
    "salary": 800.0,
    "city": "Novi Sad, Gogoljeva 2a,21000,Srbija",
    "email": "maja@gmail.com",
    "password": "maja123",
    "firstName": "Mladenka",
    "secondName": "Kokanovic",
    "uniqueCitizensidentityNumber": "1402999877721",
    "dateOfBirth": "04/09/1998",
    "phoneNumber": "066492611",
    "id": 1
  },
  {
    "room": "SecretarysRoom",
    "salary": 1000.0,
    "city": "Novi Sad, Mise Perica 2,21000,Srbija",
    "email": "natasa@gmail.com",
    "password": "natasa",
    "firstName": "Natasa",
    "secondName": "Savic",
    "uniqueCitizensidentityNumber": "1402999805021",
    "dateOfBirth": "11/11/1988",
    "phoneNumber": "0659781655",
    "id": 3
  }
]